Codon,dS,dN,dN/dS,Normalized dN-dS,dS (when dN=dS),Log(L),LRT,p-value
1,7.44188e-15,0,   0.000,-1.85147e-13,1.23968e-14,-3.95999,4.44089e-15,1
2,4.85454e-15,0,   0.000,-1.20776e-13,3.47957e-16,-4.96476,0,1
3,3.55527e-15,0,   0.000,-8.84518e-14,1.41732e-14,-3.3639,3.55271e-15,1
4,2.82767e-15,0,   0.000,-7.03498e-14,2.09396e-15,-3.87744,0,1
5,5.74363e-15,0,   0.000,-1.42896e-13,2.26997e-14,-3.84328,3.55271e-15,1
6,0,0,Undefined,0,0,0,0,1
7,0,0,Undefined,0,0,0,0,1
8,0,0,Undefined,0,0,0,0,1
9,0,0,Undefined,0,0,0,0,1
10,0,0,Undefined,0,0,0,0,1
11,0,0,Undefined,0,0,0,0,1
12,0,0,Undefined,0,0,0,0,1
13,0,0,Undefined,0,0,0,0,1
14,0,0,Undefined,0,0,0,0,1
15,0,0,Undefined,0,0,0,0,1
16,0,0,Undefined,0,0,0,0,1
17,0,0,Undefined,0,0,0,0,1
18,1.16415e-14,3.74554,321740325559421.062,93.1855,2.65863,-8.04975,0.679788,0.40966
19,0,0,Undefined,0,0,0,0,1
20,0,0,Undefined,0,0,0,0,1
21,0,0,Undefined,0,0,0,0,1
22,0,0,Undefined,0,0,0,0,1
23,0,0,Undefined,0,0,0,0,1
24,0,0,Undefined,0,0,0,0,1
25,5.91383,0,   0.000,-147.13,2.66119,-10.9113,1.58791,0.207625
26,0,0,Undefined,0,0,0,0,1
27,0,0,Undefined,0,0,0,0,1
28,0,0,Undefined,0,0,0,0,1
29,0,0,Undefined,0,0,0,0,1
30,0,0,Undefined,0,0,0,0,1
31,0,0,Undefined,0,0,0,0,1
32,0,0,Undefined,0,0,0,0,1
33,0,0,Undefined,0,0,0,0,1
34,0,0,Undefined,0,0,0,0,1
35,0,0,Undefined,0,0,0,0,1
36,0,0,Undefined,0,0,0,0,1
37,0,0,Undefined,0,0,0,0,1
38,0,0,Undefined,0,0,0,0,1
39,0,0,Undefined,0,0,0,0,1
40,0,0,Undefined,0,0,0,0,1
41,0,0,Undefined,0,0,0,0,1
42,0,0,Undefined,0,0,0,0,1
43,0,0,Undefined,0,0,0,0,1
44,0,0,Undefined,0,0,0,0,1
45,0,0,Undefined,0,0,0,0,1
46,0,0,Undefined,0,0,0,0,1
47,0,0,Undefined,0,0,0,0,1
48,0,0,Undefined,0,0,0,0,1
49,0,0,Undefined,0,0,0,0,1
50,0,0,Undefined,0,0,0,0,1
51,0,0,Undefined,0,0,0,0,1
52,0,0,Undefined,0,0,0,0,1
53,0,0,Undefined,0,0,0,0,1
54,0,0,Undefined,0,0,0,0,1
55,0,0,Undefined,0,0,0,0,1
56,15.5689,0,   0.000,-387.339,5.28636,-10.7902,4.20505,0.0403037
57,0,0,Undefined,0,0,0,0,1
58,0,0,Undefined,0,0,0,0,1
59,0,0,Undefined,0,0,0,0,1
60,0,0,Undefined,0,0,0,0,1
61,0,0,Undefined,0,0,0,0,1
62,0,0,Undefined,0,0,0,0,1
63,0,0,Undefined,0,0,0,0,1
64,0,0,Undefined,0,0,0,0,1
65,0,0,Undefined,0,0,0,0,1
66,0,4.22342,Infinite,105.075,2.65436,-9.18257,0.923,0.336688
67,0,0,Undefined,0,0,0,0,1
68,0,0,Undefined,0,0,0,0,1
69,0,0,Undefined,0,0,0,0,1
70,0,0,Undefined,0,0,0,0,1
71,0,0,Undefined,0,0,0,0,1
72,0,0,Undefined,0,0,0,0,1
73,0,0,Undefined,0,0,0,0,1
74,0,0,Undefined,0,0,0,0,1
75,0,0,Undefined,0,0,0,0,1
76,0,0,Undefined,0,0,0,0,1
77,0,0,Undefined,0,0,0,0,1
78,0,0,Undefined,0,0,0,0,1
79,0,0,Undefined,0,0,0,0,1
80,0,0,Undefined,0,0,0,0,1
81,11.3283,0,   0.000,-281.838,3.07556,-8.01103,2.59636,0.10711
82,0,0,Undefined,0,0,0,0,1
83,0,0,Undefined,0,0,0,0,1
84,0,0,Undefined,0,0,0,0,1
85,0,0,Undefined,0,0,0,0,1
86,0,0,Undefined,0,0,0,0,1
87,0,0,Undefined,0,0,0,0,1
88,0,0,Undefined,0,0,0,0,1
89,0,0,Undefined,0,0,0,0,1
90,0,0,Undefined,0,0,0,0,1
91,26.3835,0,   0.000,-656.398,6.53668,-10.6529,5.21558,0.0223854
92,0,0,Undefined,0,0,0,0,1
93,0,0,Undefined,0,0,0,0,1
94,0,0,Undefined,0,0,0,0,1
95,0,0,Undefined,0,0,0,0,1
96,0,0,Undefined,0,0,0,0,1
97,0,0,Undefined,0,0,0,0,1
98,0,0,Undefined,0,0,0,0,1
99,0,0,Undefined,0,0,0,0,1
100,0,0,Undefined,0,0,0,0,1
101,0,0,Undefined,0,0,0,0,1
102,0,0,Undefined,0,0,0,0,1
103,0,0,Undefined,0,0,0,0,1
104,0,0,Undefined,0,0,0,0,1
105,0,0,Undefined,0,0,0,0,1
106,27.9521,0,   0.000,-695.422,8.04738,-13.4238,7.19193,0.0073232
107,0,0,Undefined,0,0,0,0,1
108,20.0948,0,   0.000,-499.939,2.54636,-8.26618,4.12826,0.0421726
109,11.8515,0,   0.000,-294.855,2.85987,-8.47102,2.81902,0.0931534
110,0,0,Undefined,0,0,0,0,1
111,0,0,Undefined,0,0,0,0,1
112,0,0,Undefined,0,0,0,0,1
113,22.459,0,   0.000,-558.759,5.25401,-9.56651,5.65512,0.0174044
114,0,0,Undefined,0,0,0,0,1
115,0,0,Undefined,0,0,0,0,1
116,0,0,Undefined,0,0,0,0,1
117,0,0,Undefined,0,0,0,0,1
118,0,0,Undefined,0,0,0,0,1
119,0,0,Undefined,0,0,0,0,1
120,0,0,Undefined,0,0,0,0,1
121,7.4337,0,   0.000,-184.944,2.79727,-7.95104,1.93063,0.16469
122,0,0,Undefined,0,0,0,0,1
123,0,0,Undefined,0,0,0,0,1
124,0,0,Undefined,0,0,0,0,1
125,0,0,Undefined,0,0,0,0,1
126,0,0,Undefined,0,0,0,0,1
127,0,0,Undefined,0,0,0,0,1
128,0,0,Undefined,0,0,0,0,1
129,0,0,Undefined,0,0,0,0,1
130,0,0,Undefined,0,0,0,0,1
131,0,0,Undefined,0,0,0,0,1
132,0,0,Undefined,0,0,0,0,1
133,0,0,Undefined,0,0,0,0,1
134,0,0,Undefined,0,0,0,0,1
135,0,0,Undefined,0,4.93613e-15,-3.79001,1.77636e-15,1
136,0,0,Undefined,0,2.8045e-15,-3.89723,0,1
137,7.73684,0,   0.000,-192.485,2.48445,-10.0373,2.24166,0.134337
138,0,0,Undefined,0,4.93613e-15,-3.55784,1.77636e-15,1
139,0,0,Undefined,0,1.02815e-15,-3.84395,0,1
140,0,0,Undefined,0,1.02815e-15,-3.30114,0,1
141,0,0,Undefined,0,2.44923e-15,-3.95999,0,1
142,0.999997,0,   0.000,-24.879,2.09396e-15,-4.44004,0,1
143,0,0,Undefined,0,2.44923e-15,-3.87744,0,1
144,0.999997,0,   0.000,-24.879,2.09396e-15,-4.44004,0,1
145,0,0,Undefined,0,1.02815e-15,-4.21814,0,1