beta  ances 
0.356 0.649
0.347 0.663
0.344 0.671
0.349 0.672
0.349 0.670
0.349 0.672
0.349 0.673
0.349 0.674
0.348 0.675
0.347 0.677
0.350 0.677
0.349 0.677
0.349 0.676
0.350 0.676
0.349 0.676
0.349 0.677
0.348 0.677
0.348 0.679
0.348 0.679
0.347 0.679
0.348 0.679
0.348 0.679
0.348 0.679
0.347 0.678
0.347 0.679
0.347 0.679
0.347 0.679
0.347 0.679
0.347 0.678
0.347 0.678
0.347 0.678
0.347 0.678
0.347 0.678
0.346 0.678
0.346 0.678
0.346 0.678
0.346 0.678
0.346 0.678
0.346 0.678
0.345 0.679
0.345 0.679
0.345 0.679
0.345 0.679
0.345 0.679
0.345 0.679
0.345 0.680
0.345 0.680
0.346 0.680
0.346 0.680
