beta  ances 
0.361 0.705
0.365 0.705
0.368 0.696
0.364 0.699
0.360 0.701
0.361 0.702
0.361 0.701
0.361 0.701
0.357 0.701
0.359 0.702
0.359 0.700
0.359 0.700
0.360 0.700
0.361 0.701
0.360 0.701
0.361 0.700
0.362 0.700
0.362 0.701
0.362 0.702
0.362 0.702
0.362 0.702
0.362 0.702
0.362 0.702
0.361 0.702
0.361 0.703
0.360 0.702
0.360 0.703
0.360 0.703
0.360 0.702
0.360 0.702
0.360 0.703
0.360 0.704
0.360 0.703
0.360 0.703
0.361 0.703
0.361 0.703
0.361 0.704
0.361 0.704
0.361 0.704
0.361 0.704
0.361 0.704
0.361 0.704
0.361 0.704
0.361 0.704
0.360 0.704
0.360 0.704
0.360 0.704
0.360 0.705
0.360 0.705
