Codon,dS,dN,dN/dS,Normalized dN-dS,dS (when dN=dS),Log(L),LRT,p-value
1,0,0,Undefined,0,1.02815e-15,-5.17685,0,1
2,0,0,Undefined,0,5.84057e-16,-3.66484,0,1
3,0,0,Undefined,0,1.02815e-15,-4.56498,0,1
4,0,0,Undefined,0,1.73869e-15,-3.39127,0,1
5,0,0,Undefined,0,5.84057e-16,-3.72835,0,1
6,0,0,Undefined,0,5.84057e-16,-3.72835,0,1
7,0,0,Undefined,0,2.44923e-15,-4.29352,0,1
8,0,0,Undefined,0,1.02815e-15,-4.17703,0,1
9,0,0,Undefined,0,1.02815e-15,-3.94656,0,1
10,0,0,Undefined,0,3.17603e-16,-3.37085,0,1
11,0,0,Undefined,0,0,0,0,1
12,0,0,Undefined,0,0,0,0,1
13,0,0,Undefined,0,0,0,0,1
14,15.9788,0,   0.000,-373.013,4.06836,-11.5886,5.38407,0.0203214
15,0,0,Undefined,0,0,0,0,1
16,0,0,Undefined,0,0,0,0,1
17,0,0,Undefined,0,0,0,0,1
18,0,0,Undefined,0,0,0,0,1
19,0,0,Undefined,0,0,0,0,1
20,6.69209,0,   0.000,-156.222,2.3437,-6.8542,2.08741,0.148517
21,0,0,Undefined,0,0,0,0,1
22,0,0,Undefined,0,0,0,0,1
23,33.8572,0,   0.000,-790.371,10.1495,-18.9424,9.04879,0.00262868
24,0,0,Undefined,0,0,0,0,1
25,0,0,Undefined,0,0,0,0,1
26,0,0,Undefined,0,0,0,0,1
27,0,0,Undefined,0,0,0,0,1
28,0,0,Undefined,0,0,0,0,1
29,0,0,Undefined,0,0,0,0,1
30,0,0,Undefined,0,0,0,0,1
31,0,0,Undefined,0,0,0,0,1
32,0,0,Undefined,0,0,0,0,1
33,0,0,Undefined,0,0,0,0,1
34,0,0,Undefined,0,0,0,0,1
35,0,0,Undefined,0,0,0,0,1
36,0,0,Undefined,0,0,0,0,1
37,0,0,Undefined,0,0,0,0,1
38,0,0,Undefined,0,0,0,0,1
39,0,0,Undefined,0,0,0,0,1
40,0,0,Undefined,0,0,0,0,1
41,0,0,Undefined,0,0,0,0,1
42,0,0,Undefined,0,0,0,0,1
43,0,0,Undefined,0,0,0,0,1
44,22.2268,0,   0.000,-518.867,6.6727,-15.6992,6.94897,0.00838677
45,0,0,Undefined,0,0,0,0,1
46,0,0,Undefined,0,0,0,0,1
47,0,0,Undefined,0,0,0,0,1
48,0,0,Undefined,0,0,0,0,1
49,0,0,Undefined,0,0,0,0,1
50,0,0,Undefined,0,0,0,0,1
51,0,0,Undefined,0,0,0,0,1
52,0,0,Undefined,0,0,0,0,1
53,13.9629,0,   0.000,-325.953,4.44895,-11.4006,4.49695,0.0339554
54,0,0,Undefined,0,0,0,0,1
55,0,0,Undefined,0,0,0,0,1
56,0,0,Undefined,0,0,0,0,1
57,0,0,Undefined,0,0,0,0,1
58,0,0,Undefined,0,0,0,0,1
59,0,0,Undefined,0,0,0,0,1
60,0,0,Undefined,0,0,0,0,1
61,0,0,Undefined,0,0,0,0,1
62,6.40128,0,   0.000,-149.433,2.3052,-6.56817,2.02929,0.154293
63,0,0,Undefined,0,0,0,0,1
64,0,0,Undefined,0,0,0,0,1
65,14.0392,0,   0.000,-327.734,4.44508,-10.3172,4.50056,0.0338837
66,0,0,Undefined,0,0,0,0,1
67,0,0,Undefined,0,0,0,0,1
68,0,0,Undefined,0,0,0,0,1
69,0,0,Undefined,0,0,0,0,1
70,0,0,Undefined,0,0,0,0,1
71,0,0,Undefined,0,0,0,0,1
72,0,0,Undefined,0,0,0,0,1
73,0,0,Undefined,0,0,0,0,1
74,0,0,Undefined,0,0,0,0,1
75,0,0,Undefined,0,0,0,0,1
76,0,0,Undefined,0,0,0,0,1
77,0,0,Undefined,0,0,0,0,1
78,0,0,Undefined,0,0,0,0,1
79,11.3759,0,   0.000,-265.561,2.33585,-7.41685,3.09863,0.0783581
80,0,0,Undefined,0,0,0,0,1
81,0,0,Undefined,0,0,0,0,1
82,0,0,Undefined,0,0,0,0,1
83,0,0,Undefined,0,0,0,0,1
84,0,0,Undefined,0,0,0,0,1
85,0,0,Undefined,0,0,0,0,1
86,0,0,Undefined,0,0,0,0,1
87,0,0,Undefined,0,0,0,0,1
88,0,0,Undefined,0,0,0,0,1
89,0,0,Undefined,0,0,0,0,1
90,0,0,Undefined,0,0,0,0,1
91,0,0,Undefined,0,0,0,0,1
92,0,0,Undefined,0,0,0,0,1
93,0,0,Undefined,0,0,0,0,1
94,0,0,Undefined,0,0,0,0,1
95,0,0,Undefined,0,0,0,0,1
96,0,0,Undefined,0,0,0,0,1
97,0,0,Undefined,0,0,0,0,1
98,0,0,Undefined,0,0,0,0,1
99,0,0,Undefined,0,0,0,0,1
100,0,0,Undefined,0,0,0,0,1
101,0,0,Undefined,0,0,0,0,1
102,0,0,Undefined,0,0,0,0,1
103,0,0,Undefined,0,0,0,0,1
104,0,0,Undefined,0,0,0,0,1
105,0,0,Undefined,0,0,0,0,1
106,0,0,Undefined,0,0,0,0,1
107,0,0,Undefined,0,0,0,0,1
108,0,0,Undefined,0,0,0,0,1
109,0,0,Undefined,0,0,0,0,1
110,0,0,Undefined,0,0,0,0,1
111,0,0,Undefined,0,0,0,0,1
112,0,0,Undefined,0,0,0,0,1
113,0,0,Undefined,0,0,0,0,1
114,0,0,Undefined,0,0,0,0,1
115,0,0,Undefined,0,0,0,0,1
116,0,0,Undefined,0,0,0,0,1
117,0,0,Undefined,0,0,0,0,1
118,0,0,Undefined,0,0,0,0,1
119,0,0,Undefined,0,0,0,0,1
120,0,0,Undefined,0,0,0,0,1
121,0,0,Undefined,0,0,0,0,1
122,0,0,Undefined,0,0,0,0,1
123,0,0,Undefined,0,0,0,0,1
124,0,0,Undefined,0,0,0,0,1
125,0,0,Undefined,0,0,0,0,1
126,0,0,Undefined,0,0,0,0,1
127,0,0,Undefined,0,0,0,0,1
128,0,0,Undefined,0,0,0,0,1
129,0,0,Undefined,0,0,0,0,1
130,0,0,Undefined,0,0,0,0,1
131,0,0,Undefined,0,0,0,0,1
132,7.13117,0,   0.000,-166.472,2.38714,-7.49179,2.16172,0.141486
133,0,0,Undefined,0,1.73869e-15,-3.39127,0,1
134,4.86696,0,   0.000,-113.615,2.22889,-9.50823,1.54773,0.213471
135,0,0,Undefined,0,1.73869e-15,-3.39127,0,1
136,0,0,Undefined,0,1.02815e-15,-4.44687,0,1
137,0,0,Undefined,0,2.44923e-15,-4.29352,0,1
138,0,0,Undefined,0,1.02815e-15,-3.43437,0,1
139,0,0,Undefined,0,5.84057e-16,-3.72835,0,1
140,0,0,Undefined,0,2.2716e-15,-4.36199,0,1
141,0,0,Undefined,0,1.02815e-15,-4.56498,0,1
142,0.999961,0,   0.000,-23.3433,2.8045e-15,-4.98041,0,1
143,0,0,Undefined,0,1.02815e-15,-4.78394,0,1