beta  ances 
0.385 0.591
0.387 0.588
0.384 0.586
0.385 0.593
0.384 0.590
0.382 0.588
0.379 0.589
0.376 0.591
0.376 0.592
0.376 0.592
0.374 0.591
0.373 0.591
0.373 0.589
0.373 0.591
0.373 0.592
0.372 0.593
0.371 0.593
0.371 0.594
0.370 0.594
0.371 0.594
0.370 0.595
0.370 0.596
0.371 0.596
0.371 0.596
0.372 0.596
0.372 0.596
0.372 0.596
0.372 0.596
0.373 0.595
0.373 0.596
0.373 0.595
0.373 0.596
0.374 0.596
0.374 0.596
0.374 0.596
0.374 0.596
0.374 0.595
0.374 0.595
0.374 0.595
0.374 0.595
0.374 0.595
0.374 0.595
0.374 0.596
0.374 0.596
0.375 0.596
0.375 0.595
0.375 0.595
0.375 0.595
0.375 0.595
