beta  ances 
0.347 0.677
0.346 0.672
0.346 0.677
0.345 0.676
0.342 0.673
0.342 0.674
0.341 0.676
0.342 0.677
0.342 0.675
0.342 0.676
0.343 0.675
0.343 0.677
0.343 0.677
0.343 0.678
0.343 0.678
0.343 0.679
0.343 0.679
0.343 0.679
0.342 0.679
0.342 0.679
0.343 0.680
0.343 0.681
0.343 0.680
0.343 0.679
0.343 0.680
0.342 0.680
0.342 0.679
0.342 0.679
0.342 0.679
0.343 0.679
0.343 0.679
0.343 0.680
0.343 0.680
0.343 0.680
0.343 0.680
0.342 0.679
0.343 0.679
0.343 0.679
0.343 0.679
0.343 0.680
0.343 0.680
0.343 0.680
0.343 0.680
0.343 0.680
0.343 0.680
0.343 0.680
0.343 0.680
0.342 0.680
0.342 0.681
