beta  ances 
0.337 0.645
0.351 0.638
0.354 0.639
0.362 0.640
0.359 0.639
0.358 0.639
0.359 0.638
0.364 0.632
0.365 0.631
0.364 0.632
0.364 0.631
0.362 0.632
0.362 0.634
0.362 0.633
0.362 0.634
0.362 0.634
0.362 0.634
0.362 0.634
0.363 0.633
0.365 0.632
0.365 0.631
0.365 0.630
0.366 0.630
0.366 0.631
0.366 0.631
0.366 0.632
0.365 0.632
0.365 0.632
0.365 0.631
0.366 0.631
0.366 0.631
0.366 0.630
0.366 0.630
0.366 0.630
0.366 0.630
0.365 0.630
0.365 0.630
0.365 0.630
0.365 0.631
0.365 0.631
0.365 0.630
0.365 0.630
0.364 0.630
0.364 0.630
0.364 0.630
0.364 0.630
0.364 0.629
0.364 0.629
0.364 0.629
