fragment_name,gene,full_name
ICE1_3,ICE1,Inducer of CBF 1
ICE1_EX1,ICE1,Inducer of CBF 1
ERS1_2,ERS1,Ethylene ReSponse 1
ERS1_EX3,ERS1,Ethylene ReSponse 1
GAPD_B,GAPB,GlycerAldehyde Phosphate Dehydrogenase subunit B
GAPD_EX3,GAPB,GlycerAldehyde Phosphate Dehydrogenase subunit B
HOS3_1,HOS1,Highly expressed under Osmotic Stress 1
HOS4_EX2,HOS1,Highly expressed under Osmotic Stress 1
SDIR1,SDIR1,Salt and Drought Induced Ring finger protein 1
TIP,TIP,Tonoplast Intrinsic Protein (Aquaporin)
CHR11_18,CHR11,Chromatin Remodelling Protein
CHR11_EX1,CHR11,Chromatin Remodelling Protein
DAM2,DAM,Dormancy Associated MADS Box