beta  ances 
0.376 0.637
0.372 0.611
0.377 0.618
0.377 0.622
0.378 0.621
0.381 0.622
0.382 0.624
0.382 0.624
0.381 0.622
0.380 0.621
0.379 0.623
0.380 0.623
0.379 0.625
0.379 0.626
0.378 0.627
0.377 0.628
0.375 0.628
0.376 0.629
0.376 0.629
0.377 0.629
0.377 0.629
0.377 0.629
0.376 0.628
0.375 0.628
0.376 0.628
0.375 0.628
0.376 0.629
0.376 0.628
0.376 0.628
0.376 0.629
0.376 0.628
0.376 0.628
0.375 0.627
0.376 0.627
0.376 0.627
0.376 0.627
0.376 0.627
0.376 0.627
0.376 0.628
0.376 0.627
0.376 0.628
0.375 0.627
0.376 0.627
0.376 0.627
0.375 0.628
0.375 0.628
0.375 0.628
0.375 0.628
0.375 0.629
