Codon,E[dS],E[dN],E[dN-dS],Posterior Pr{dN>dS},Bayes Factor {dN>dS},Posterior Pr{dN<dS},Bayes Factor {dN<dS}
1,1,0.620218,-0.379782,0.0286971,0.639992,0.971303,1.56252
2,1,0.512247,-0.487753,0.0236969,0.525773,0.976303,1.90196
3,1,0.620218,-0.379782,0.0286971,0.639992,0.971303,1.56252
4,1,21.5937,20.5937,1,203521000,1.06434e-07,4.91349e-09
5,1,0.132354,-0.867646,0.00610367,0.133028,0.993896,7.51723
6,1,0.0698087,-0.930191,0.00320714,0.0696955,0.996793,14.3481
7,1,0.203047,-0.796953,0.00937754,0.205056,0.990622,4.87671
8,1,0.132354,-0.867646,0.00610367,0.133028,0.993896,7.51723
9,1,0.0698087,-0.930191,0.00320714,0.0696955,0.996793,14.3481
10,1,0.0691999,-0.9308,0.00317895,0.0690809,0.996821,14.4758
11,1,0.132354,-0.867646,0.00610367,0.133028,0.993896,7.51723
12,1,0.614088,-0.385912,0.0284132,0.633477,0.971587,1.57859
13,1,0.513523,-0.486477,0.0237559,0.527115,0.976244,1.89712
14,1,0.338755,-0.661245,0.0156623,0.34467,0.984338,2.90133
15,1,0.162586,-0.837414,0.00750372,0.163772,0.992496,6.10605
16,1,0.108395,-0.891605,0.00499409,0.108723,0.995006,9.19766
17,1,0.612783,-0.387217,0.0283527,0.632089,0.971647,1.58206
18,1,0.108395,-0.891605,0.00499409,0.108723,0.995006,9.19766
19,1,0.108395,-0.891605,0.00499409,0.108723,0.995006,9.19766
20,1,0.242207,-0.757793,0.0111911,0.245161,0.988809,4.07896
21,1,0.0944685,-0.905531,0.00434916,0.0946215,0.995651,10.5684
22,1,0.614237,-0.385763,0.0284201,0.633634,0.97158,1.5782
23,1,0.0492616,-0.950738,0.00225558,0.0489701,0.997744,20.4206
24,1,0.515128,-0.484872,0.0238303,0.528805,0.97617,1.89106
25,1,0.0492616,-0.950738,0.00225558,0.0489701,0.997744,20.4206
26,1,0.162586,-0.837414,0.00750372,0.163772,0.992496,6.10605
27,1,0.515128,-0.484872,0.0238303,0.528805,0.97617,1.89106
28,1,0.12936,-0.87064,0.005965,0.129987,0.994035,7.69306
29,1,0.162586,-0.837414,0.00750372,0.163772,0.992496,6.10605
30,1,0.242207,-0.757793,0.0111911,0.245161,0.988809,4.07896
31,1,0.162586,-0.837414,0.00750372,0.163772,0.992496,6.10605
32,1,0.135411,-0.864589,0.00624524,0.136133,0.993755,7.34578
33,1,0.068968,-0.931032,0.00316821,0.0688467,0.996832,14.525
34,1,0.12936,-0.87064,0.005965,0.129987,0.994035,7.69306
35,1,0.515128,-0.484872,0.0238303,0.528805,0.97617,1.89106
36,1,0.0691999,-0.9308,0.00317895,0.0690809,0.996821,14.4758
37,1,0.513523,-0.486477,0.0237559,0.527115,0.976244,1.89712
38,1,0.0939394,-0.906061,0.00432465,0.0940861,0.995675,10.6286
39,1,0.0470276,-0.952972,0.00215213,0.0467192,0.997848,21.4045
40,1,0.108395,-0.891605,0.00499409,0.108723,0.995006,9.19766
41,1,0.612783,-0.387217,0.0283527,0.632089,0.971647,1.58206
42,1,0.614237,-0.385763,0.0284201,0.633634,0.97158,1.5782
43,1,0.0939394,-0.906061,0.00432465,0.0940861,0.995675,10.6286
44,1,21.5537,20.5537,0.998148,11672.9,0.00185228,8.56685e-05
45,1,0.614237,-0.385763,0.0284201,0.633634,0.97158,1.5782
46,1,0.242207,-0.757793,0.0111911,0.245161,0.988809,4.07896
47,1,0.242207,-0.757793,0.0111911,0.245161,0.988809,4.07896
48,1,0.612783,-0.387217,0.0283527,0.632089,0.971647,1.58206
49,1,0.515128,-0.484872,0.0238303,0.528805,0.97617,1.89106
50,1,0.242207,-0.757793,0.0111911,0.245161,0.988809,4.07896
51,1,0.162586,-0.837414,0.00750372,0.163772,0.992496,6.10605
52,1,0.103861,-0.896139,0.00478414,0.104131,0.995216,9.60332
53,1,0.0470276,-0.952972,0.00215213,0.0467192,0.997848,21.4045
54,1,0.162586,-0.837414,0.00750372,0.163772,0.992496,6.10605
55,1,0.135411,-0.864589,0.00624524,0.136133,0.993755,7.34578
56,1,0.162586,-0.837414,0.00750372,0.163772,0.992496,6.10605
57,1,0.162586,-0.837414,0.00750372,0.163772,0.992496,6.10605
58,1,0.132354,-0.867646,0.00610367,0.133028,0.993896,7.51723
59,1,0.162586,-0.837414,0.00750372,0.163772,0.992496,6.10605
60,1,0.0331167,-0.966883,0.0015079,0.032713,0.998492,30.5689
61,1,0.203047,-0.796953,0.00937754,0.205056,0.990622,4.87671