beta  ances 
0.366 0.699
0.364 0.700
0.361 0.704
0.359 0.707
0.355 0.706
0.354 0.706
0.353 0.704
0.355 0.704
0.352 0.705
0.353 0.703
0.352 0.702
0.352 0.703
0.352 0.703
0.352 0.703
0.350 0.702
0.350 0.703
0.351 0.703
0.350 0.702
0.349 0.702
0.349 0.703
0.350 0.702
0.351 0.701
0.351 0.701
0.352 0.701
0.352 0.701
0.351 0.702
0.352 0.702
0.353 0.702
0.352 0.702
0.352 0.702
0.352 0.702
0.352 0.702
0.352 0.702
0.352 0.702
0.353 0.701
0.353 0.702
0.353 0.702
0.352 0.702
0.353 0.702
0.353 0.702
0.353 0.702
0.353 0.702
0.353 0.702
0.353 0.701
0.353 0.701
0.352 0.701
0.352 0.701
0.352 0.701
0.352 0.701
